{
    "data": [
        {
            "id": "record_updated_at_jan_3",
            "type": "organizations",
            "attributes": {
                "name": "kobe",
                "subdomain": "kobe.stg",
                "website_url": "https://github.com/KDRaypole",
                "determinant_id": "ca96ae72-fefb-4b1f-9b08-231946412d7a",
                "logo": null,
                "email_address_domain": "krow.ai",
                "acm_status": "in_progress",
                "acm_reason": "Heroku is verifying your custom domain’s DNS.",
                "status": "pending",
                "onboarding": true,
                "regions_count": 1,
                "regions_count_updated_at": "2021-09-30T19:50:16.012Z",
                "locations_count": 0,
                "locations_count_updated_at": "2021-09-30T19:50:16.012Z",
                "account_managers_count": 2,
                "account_managers_count_updated_at": "2021-11-11T03:00:21.208Z",
                "organization_members_count": 0,
                "organization_members_count_updated_at": "2021-10-06T17:22:50.210Z",
                "rolling_daily_apply_count": null,
                "rolling_daily_apply_change": null,
                "rolling_monthly_apply_count": null,
                "rolling_monthly_apply_change": null,
                "rolling_apply_count_updated_at": null,
                "rolling_daily_hire_count": null,
                "rolling_daily_hire_change": null,
                "rolling_monthly_hire_count": null,
                "rolling_monthly_hire_change": null,
                "rolling_hire_count_updated_at": null,
                "average_days_to_decision": null,
                "average_days_to_decision_updated_at": null,
                "alerted": false,
                "created_at": "2021-06-24T19:37:47.738Z",
                "updated_at": "2020-01-03T00:00:00.000Z"
            },
            "relationships": {
                "determinant": {
                    "data": {
                        "id": "ca96ae72-fefb-4b1f-9b08-231946412d7a",
                        "type": "determinants"
                    }
                },
                "configuration": {
                    "data": {
                        "id": "36899f6b-2a09-4e45-98f8-9d2cbff5a307",
                        "type": "configurations"
                    }
                }
            }
        },
        {
            "id": "record_updated_at_jan_2",
            "type": "organizations",
            "attributes": {
                "name": "Treebeard's Tap House",
                "subdomain": "treebeards.stg",
                "website_url": "https://treebeardstavern.biz.ly.gov",
                "determinant_id": "ca96ae72-fefb-4b1f-9b08-231946412d7a",
                "logo": "https://krow-staging.nyc3.digitaloceanspaces.com/a744968b-d077-4579-8176-52e494661951",
                "email_address_domain": "krow.ai",
                "acm_status": "in_progress",
                "acm_reason": "Heroku is verifying your custom domain’s DNS.",
                "status": "pending",
                "onboarding": true,
                "regions_count": 81,
                "regions_count_updated_at": "2021-11-05T18:02:58.926Z",
                "locations_count": 0,
                "locations_count_updated_at": null,
                "account_managers_count": 10,
                "account_managers_count_updated_at": "2021-11-09T21:35:25.503Z",
                "organization_members_count": 0,
                "organization_members_count_updated_at": null,
                "rolling_daily_apply_count": null,
                "rolling_daily_apply_change": null,
                "rolling_monthly_apply_count": null,
                "rolling_monthly_apply_change": null,
                "rolling_apply_count_updated_at": null,
                "rolling_daily_hire_count": null,
                "rolling_daily_hire_change": null,
                "rolling_monthly_hire_count": null,
                "rolling_monthly_hire_change": null,
                "rolling_hire_count_updated_at": null,
                "average_days_to_decision": null,
                "average_days_to_decision_updated_at": null,
                "alerted": false,
                "created_at": "2021-10-12T19:03:26.888Z",
                "updated_at": "2020-01-02T00:00:00.000Z"
            },
            "relationships": {
                "determinant": {
                    "data": {
                        "id": "ca96ae72-fefb-4b1f-9b08-231946412d7a",
                        "type": "determinants"
                    }
                },
                "configuration": {
                    "data": {
                        "id": "1b5d4731-a606-43d1-88fa-285829198d56",
                        "type": "configurations"
                    }
                }
            }
        },
        {
            "id": "record_updated_at_dec_31",
            "type": "organizations",
            "attributes": {
                "name": "the Emoji Movie Cafe Gift Shop The Game",
                "subdomain": "emojimoviecafegiftshopgame.stg",
                "website_url": "https://emojimoviecafegiftshop.biz",
                "determinant_id": "ca96ae72-fefb-4b1f-9b08-231946412d7a",
                "logo": "https://krow-staging.nyc3.digitaloceanspaces.com/497f719b-9c22-4666-ace8-d4a984cf2a47",
                "email_address_domain": "krow.ai",
                "acm_status": "in_progress",
                "acm_reason": "Heroku is verifying your custom domain’s DNS.",
                "status": "pending",
                "onboarding": true,
                "regions_count": 6,
                "regions_count_updated_at": "2021-10-18T13:40:53.986Z",
                "locations_count": 0,
                "locations_count_updated_at": null,
                "account_managers_count": 0,
                "account_managers_count_updated_at": null,
                "organization_members_count": 0,
                "organization_members_count_updated_at": null,
                "rolling_daily_apply_count": null,
                "rolling_daily_apply_change": null,
                "rolling_monthly_apply_count": null,
                "rolling_monthly_apply_change": null,
                "rolling_apply_count_updated_at": null,
                "rolling_daily_hire_count": null,
                "rolling_daily_hire_change": null,
                "rolling_monthly_hire_count": null,
                "rolling_monthly_hire_change": null,
                "rolling_hire_count_updated_at": null,
                "average_days_to_decision": null,
                "average_days_to_decision_updated_at": null,
                "alerted": false,
                "created_at": "2021-10-13T22:03:40.256Z",
                "updated_at": "2019-12-31T00:00:00.000Z"
            },
            "relationships": {
                "determinant": {
                    "data": {
                        "id": "ca96ae72-fefb-4b1f-9b08-231946412d7a",
                        "type": "determinants"
                    }
                },
                "configuration": {
                    "data": {
                        "id": "a31ca2f3-de21-4f6d-ac8c-72a2573f1653",
                        "type": "configurations"
                    }
                }
            }
        }
    ],
    "meta": {
        "pagination": {
            "total": 50,
            "pages": 3
        }
    },
    "links": {
        "self": "/v1/organizations?page%5Bnumber%5D=1&page%5Bsize%5D=25&sort=updated_at",
        "next": "/v1/organizations?page%5Bnumber%5D=2&page%5Bsize%5D=25&sort=updated_at",
        "prev": null,
        "first": "/v1/organizations?page%5Bnumber%5D=1&page%5Bsize%5D=25&sort=updated_at",
        "last": "/v1/organizations?page%5Bnumber%5D=3&page%5Bsize%5D=25&sort=updated_at"
    }
}